{
    "interface": "https://schema.skao.int/ska-tmc-assignresources/2.1",
    "transaction_id": "txn-....-00001",
    "subarray_id": 1,
    "dish": {
      "receptor_ids": [
        "SKA001",
        "SKA036",
        "SKA063"
      ]
    },
    "sdp": {
      "interface": "https://schema.skao.int/ska-sdp-assignres/0.4",
      "execution_block": {
        "eb_id": "eb-mvp01-20200325-00001",
        "max_length": 100,
        "context": {},
        "beams": [
          {
            "beam_id": "vis0",
            "function": "visibilities"
          },
          {
            "beam_id": "pss1",
            "search_beam_id": 1,
            "function": "pulsar search"
          },
          {
            "beam_id": "pss2",
            "search_beam_id": 2,
            "function": "pulsar search"
          },
          {
            "beam_id": "pst1",
            "timing_beam_id": 1,
            "function": "pulsar timing"
          },
          {
            "beam_id": "pst2",
            "timing_beam_id": 2,
            "function": "pulsar timing"
          },
          {
            "beam_id": "vlbi1",
            "vlbi_beam_id": 1,
            "function": "vlbi"
          }
        ],
  "scan_types": [ {
       "scan_type_id": ".default",
       "beams": {
          "vis0": {
                  "channels_id": "vis_channels",
                  "polarisations_id": "all"
                  },
          "pss1": {
                  "field_id": "pss_field_0",
                  "channels_id": "pulsar_channels",
                  "polarisations_id": "all"
                  },
          "pss2": {
                  "field_id": "pss_field_1",  
                  "channels_id":"pulsar_channels",   
                  "polarisations_id": "all"
                  },
          "pst1": {
                  "field_id": "pst_field_0",
                  "channels_id": "pulsar_channels",                                 
                  "polarisations_id":"all"
                  },
          "pst2": {
                  "field_id": "pst_field_1",
                  "channels_id": "pulsar_channels", 
                  "polarisations_id": "all"
                  },
          "vlbi": {
                  "field_id": "vlbi_field",
                  "channels_id": "vlbi_channels",
                  "polarisations_id": "all"
                  }
                }
                  },  
                  {
                  "scan_type_id": "target:a",
                  "derive_from": ".default",
                  "beams":
                  {
                  "vis0":
                  {
                  "field_id": "field_a"
                  }
                  }
                }
              ],      
            "channels": [
            {
            "channels_id": "vis_channels",
            "spectral_windows": [
              {
                "spectral_window_id":
                "fsp_1_channels",
                "count": 744,
                "start": 0,
                "stride": 2,
                "freq_min": 350000000,
                "freq_max": 368000000,
                "link_map": [
                  [
                    0,
                    0
                  ],
                  [
                    200,
                    1
                  ],
                  [
                    744,
                    2
                  ],
                  [
                    944,
                    3
                  ]
                ]
              },
              {
                "spectral_window_id": "fsp_2_channels",
                "count": 744,
                "start": 2000,
                "stride": 1,
                "freq_min": 360000000,
                "freq_max": 368000000,
                "link_map": 
                [
                  [
                    2000,
                    4
                  ],
                  [
                    2200,
                    5
                  ]
                ]
              },
              {
                "spectral_window_id": "zoom_window_1",
                "count": 744,
                "start": 4000,
                "stride": 1,
                "freq_min": 360000000,
                "freq_max": 361000000,
                "link_map": [
                  [
                    4000,
                    6
                  ],
                  [
                    4200,
                    7
                  ]
                ]
              }
            ]
          },
          {
            "channels_id": "pulsar_channels",
            "spectral_windows": [
              {
                "spectral_window_id": "pulsar_fsp_channels",
                "count": 744,
                "start": 0,
                "freq_min": 350000000,
                "freq_max": 368000000
              }
            ]
          }
        ],
        "polarisations": [
          {
            "polarisations_id": "all",
            "corr_type": [
              "XX",
              "XY",
              "YY",
              "YX"
            ]
          }
        ],
        "fields": [
          {
            "field_id": "field_a",
            "phase_dir": {
              "ra": [
                123,
                0.1
              ],
              "dec": [
                123,
                0.1
              ],
              "reference_time": "...",
              "reference_frame": "ICRF3"
            },
            "pointing_fqdn": "low-tmc/telstate/0/pointing"
          }
        ]
      },
      "processing_blocks": [
        {
          "pb_id": "pb-mvp01-20200325-00001",
          "sbi_ids": [
            "sbi-mvp01-20200325-00001"
          ],
          "script": {},
          "parameters": {},
          "dependencies": {}
        },
        {
          "pb_id": "pb-mvp01-20200325-00002",
          "sbi_ids": [
            "sbi-mvp01-20200325-00002"
          ],
          "script": {},
          "parameters": {},
          "dependencies": {}
        },
        {
          "pb_id": "pb-mvp01-20200325-00003",
          "sbi_ids": [
            "sbi-mvp01-20200325-00001",
            "sbi-mvp01-20200325-00002"
          ],
          "script": {},
          "parameters": {},
          "dependencies": {}
        }
      ],
      "resources": {
        "csp_links": [
          1,
          2,
          3,
          4
        ],
        "receptors": [
          "FS4",
          "FS8"
        ],
        "receive_nodes": 10
      }
    }
  }